Introdução à manipulação de dados no R usando os pacotes data.table e dplyr
…
class(DT)

## [1] "data.table" "data.frame"

# Convertendo para tbl (formato dplyr)
DF <- as_data_frame(iris)
DF

## # A tibble: 150 × 5
##    Sepal.Length Sepal.Width Petal.Length Petal.Width Species
##           <dbl>       <dbl>        <dbl>       <dbl>  <fctr>
## 1           5.1         3.5          1.4         0.2  setosa
## 2           4.9         3.0          1.4         0.2  setosa
## 3           4.7         3.2          1.3         0.2  setosa
## 4           4.6         3.1          1.5         0.2  setosa
## 5           5.0         3.6          1.4         0.2  setosa
## 6           5.4         3.9          1.7         0.4  setosa
## 7           4.6         3.4          1.4         0.3  setosa
## 8           5.0         3.4          1.5         0.2  setosa
## 9           4.4         2.9          1.4         0.2  setosa
## 10          4.9         3.1          1.5         0.1  setosa
## # ... with 140 more rows
…
# Forma alternativa:
# iris <- transform(iris, Dim = Sepal.Length/Petal.Length)
# head(iris)

# data.table (Alocação por referência)
DT[ , Dim := Sepal.Length/Petal.Length, ]

# dplyr
DF <- DF %>% mutate(Dim = Sepal.Length/Petal.Length)
DF

## # A tibble: 150 × 6
##    Sepal.Length Sepal.Width Petal.Length Petal.Width Species      Dim
##           <dbl>       <dbl>        <dbl>       <dbl>  <fctr>    <dbl>
## 1           5.1         3.5          1.4         0.2  setosa 3.642857
## 2           4.9         3.0          1.4         0.2  setosa 3.500000
## 3           4.7         3.2          1.3         0.2  setosa 3.615385
## 4           4.6         3.1          1.5         0.2  setosa 3.066667
## 5           5.0         3.6          1.4         0.2  setosa 3.571429
## 6           5.4         3.9          1.7         0.4  setosa 3.176471
## 7           4.6         3.4          1.4         0.3  setosa 3.285714
## 8           5.0         3.4          1.5         0.2  setosa 3.333333
## 9           4.4         2.9          1.4         0.2  setosa 3.142857
## 10          4.9         3.1          1.5         0.1  setosa 3.266667
## # ... with 140 more rows
…
# Forma alternativa:
# iris <- transform(iris, Dim = Sepal.Length/Petal.Length)
# head(iris)

# data.table (Alocação por referência)
DT[ , Dim := (Dim - mean(Dim)) / sd(Dim), ]

# dplyr
DF <- DF %>% mutate(Dim = (Dim - mean(Dim)) / sd(Dim))
DF

## # A tibble: 150 × 6
##    Sepal.Length Sepal.Width Petal.Length Petal.Width Species       Dim
##           <dbl>       <dbl>        <dbl>       <dbl>  <fctr>     <dbl>
## 1           5.1         3.5          1.4         0.2  setosa 1.5304954
## 2           4.9         3.0          1.4         0.2  setosa 1.3959303
## 3           4.7         3.2          1.3         0.2  setosa 1.5046175
## 4           4.6         3.1          1.5         0.2  setosa 0.9877497
## 5           5.0         3.6          1.4         0.2  setosa 1.4632129
## 6           5.4         3.9          1.7         0.4  setosa 1.0911801
## 7           4.6         3.4          1.4         0.3  setosa 1.1940828
## 8           5.0         3.4          1.5         0.2  setosa 1.2389378
## 9           4.4         2.9          1.4         0.2  setosa 1.0595177
## 10          4.9         3.1          1.5         0.1  setosa 1.1761407
## # ... with 140 more rows
…
# data.table (Alocação por referência)
DT[ , Dim := NULL, ]

# dplyr
DF <- DF %>% select(-Dim)
DF

## # A tibble: 150 × 5
##    Sepal.Length Sepal.Width Petal.Length Petal.Width Species
##           <dbl>       <dbl>        <dbl>       <dbl>  <fctr>
## 1           5.1         3.5          1.4         0.2  setosa
## 2           4.9         3.0          1.4         0.2  setosa
## 3           4.7         3.2          1.3         0.2  setosa
## 4           4.6         3.1          1.5         0.2  setosa
## 5           5.0         3.6          1.4         0.2  setosa
## 6           5.4         3.9          1.7         0.4  setosa
## 7           4.6         3.4          1.4         0.3  setosa
## 8           5.0         3.4          1.5         0.2  setosa
## 9           4.4         2.9          1.4         0.2  setosa
## 10          4.9         3.1          1.5         0.1  setosa
## # ... with 140 more rows
…
